run/pc_tb.vcd
$date
	Sun Nov 12 18:24:10 2023
$end
$version
	Icarus Verilog
$end
$timescale
	1s
$end
$scope module pc_tb $end
$var wire 1 ! pc $end
$var wire 32 " in_pc_nxt [31:0] $end
$var reg 1 # clk $end
$var reg 32 $ in_alu [31:0] $end
$var reg 1 % reset $end
$var reg 1 & sel_pc $end
$scope module c0 $end
$var wire 1 # clk $end
$var wire 32 ' in_alu [31:0] $end
$var wire 32 ( in_pc [31:0] $end
$var wire 32 ) pc_nxt [31:0] $end
$var wire 1 % rst $end
$var wire 1 & sel_pc $end
$var wire 32 * pc [31:0] $end
$var reg 32 + w_pc [31:0] $end
$var reg 32 , w_pc_nxt [31:0] $end
$upscope $end
$upscope $end
$enddefinitions $end
#0
$dumpvars
bx ,
bx +
bx *
bx )
bx (
b1000000000000000 '
0&
0%
b1000000000000000 $
0#
bx "
x!
$end
#5
1#
#10
0!
b0 "
b0 (
b0 )
b0 ,
b0 *
b0 +
0#
1%
#15
1#
#20
0#
#22
0%
#25
b100 "
b100 (
b100 )
b100 ,
1#
#30
0#
#35
b1000 "
b1000 (
b1000 )
b1000 ,
b100 *
b100 +
1#
#40
0#
#45
b1100 "
b1100 (
b1100 )
b1100 ,
b1000 *
b1000 +
1#
#50
0#
#55
b10000 "
b10000 (
b10000 )
b10000 ,
b1100 *
b1100 +
1#
#60
0#
#65
b10100 "
b10100 (
b10100 )
b10100 ,
b10000 *
b10000 +
1#
#70
0#
#75
b11000 "
b11000 (
b11000 )
b11000 ,
b10100 *
b10100 +
1#
#80
0#
#85
b11100 "
b11100 (
b11100 )
b11100 ,
b11000 *
b11000 +
1#
#90
0#
#95
b100000 "
b100000 (
b100000 )
b100000 ,
b11100 *
b11100 +
1#
#100
0#
#105
b100100 "
b100100 (
b100100 )
b100100 ,
b100000 *
b100000 +
1#
#110
0#
#115
b101000 "
b101000 (
b101000 )
b101000 ,
b100100 *
b100100 +
1#
#120
0#
#125
b101100 "
b101100 (
b101100 )
b101100 ,
b101000 *
b101000 +
1#
#130
0#
#135
b110000 "
b110000 (
b110000 )
b110000 ,
b101100 *
b101100 +
1#
#140
0#
#145
b110100 "
b110100 (
b110100 )
b110100 ,
b110000 *
b110000 +
1#
#150
0#
#155
b111000 "
b111000 (
b111000 )
b111000 ,
b110100 *
b110100 +
1#
#160
0#
#165
b111100 "
b111100 (
b111100 )
b111100 ,
b111000 *
b111000 +
1#
#170
0#
#175
b1000000 "
b1000000 (
b1000000 )
b1000000 ,
b111100 *
b111100 +
1#
#180
0#
#185
b1000100 "
b1000100 (
b1000100 )
b1000100 ,
b1000000 *
b1000000 +
1#
#190
0#
#195
b1001000 "
b1001000 (
b1001000 )
b1001000 ,
b1000100 *
b1000100 +
1#
#200
0#
#205
b1001100 "
b1001100 (
b1001100 )
b1001100 ,
b1001000 *
b1001000 +
1#
#210
0#
#215
b1010000 "
b1010000 (
b1010000 )
b1010000 ,
b1001100 *
b1001100 +
1#
#220
0#
#225
b1010100 "
b1010100 (
b1010100 )
b1010100 ,
b1010000 *
b1010000 +
1#
#230
0#
#235
b1011000 "
b1011000 (
b1011000 )
b1011000 ,
b1010100 *
b1010100 +
1#
#240
0#
#245
b1011100 "
b1011100 (
b1011100 )
b1011100 ,
b1011000 *
b1011000 +
1#
#250
0#
#255
b1100000 "
b1100000 (
b1100000 )
b1100000 ,
b1011100 *
b1011100 +
1#
#260
0#
#265
b1100100 "
b1100100 (
b1100100 )
b1100100 ,
b1100000 *
b1100000 +
1#
